{
    "688397e4-eccc-428c-b976-c68b53a7a360": {
        "id": "688397e4-eccc-428c-b976-c68b53a7a360",
        "name": "Google Search",
        "keyword": "g",
        "cmd": "https://google.com/search?q=%s",
        "icon": "/usr/share/ulauncher/media/google-search-icon.png",
        "is_default_search": true,
        "run_without_argument": false,
        "added": 1610689575.97347
    },
    "1aa5cf8b-a039-435d-b730-ba2c9250bf85": {
        "id": "1aa5cf8b-a039-435d-b730-ba2c9250bf85",
        "name": "Stack Overflow",
        "keyword": "so",
        "cmd": "http://stackoverflow.com/search?q=%s",
        "icon": "/usr/share/ulauncher/media/stackoverflow-icon.svg",
        "is_default_search": true,
        "run_without_argument": false,
        "added": 1610689575.9734845
    },
    "4a047d6e-d1f3-47f5-b454-6ae1390977ae": {
        "id": "4a047d6e-d1f3-47f5-b454-6ae1390977ae",
        "name": "Wikipedia",
        "keyword": "wiki",
        "cmd": "https://en.wikipedia.org/wiki/%s",
        "icon": "/usr/share/ulauncher/media/wikipedia-icon.png",
        "is_default_search": true,
        "run_without_argument": false,
        "added": 1610689575.9734943
    }
}